%YAML 1.1
%TAG !u! tag:unity3d.com,2011:
--- !u!1001 &1877800785179610113
PrefabInstance:
  m_ObjectHideFlags: 0
  serializedVersion: 2
  m_Modification:
    m_TransformParent: {fileID: 0}
    m_Modifications:
    - target: {fileID: 6621634542780253606, guid: c6b44a4fc86d76341b13331b3989745e, type: 3}
      propertyPath: m_LocalPosition.x
      value: 0
      objectReference: {fileID: 0}
    - target: {fileID: 6621634542780253606, guid: c6b44a4fc86d76341b13331b3989745e, type: 3}
      propertyPath: m_LocalPosition.y
      value: 0
      objectReference: {fileID: 0}
    - target: {fileID: 6621634542780253606, guid: c6b44a4fc86d76341b13331b3989745e, type: 3}
      propertyPath: m_LocalPosition.z
      value: 0
      objectReference: {fileID: 0}
    - target: {fileID: 6621634542780253606, guid: c6b44a4fc86d76341b13331b3989745e, type: 3}
      propertyPath: m_LocalRotation.x
      value: 0
      objectReference: {fileID: 0}
    - target: {fileID: 6621634542780253606, guid: c6b44a4fc86d76341b13331b3989745e, type: 3}
      propertyPath: m_LocalRotation.y
      value: 0
      objectReference: {fileID: 0}
    - target: {fileID: 6621634542780253606, guid: c6b44a4fc86d76341b13331b3989745e, type: 3}
      propertyPath: m_LocalRotation.z
      value: 0
      objectReference: {fileID: 0}
    - target: {fileID: 6621634542780253606, guid: c6b44a4fc86d76341b13331b3989745e, type: 3}
      propertyPath: m_LocalRotation.w
      value: 1
      objectReference: {fileID: 0}
    - target: {fileID: 6621634542780253606, guid: c6b44a4fc86d76341b13331b3989745e, type: 3}
      propertyPath: m_RootOrder
      value: 0
      objectReference: {fileID: 0}
    - target: {fileID: 6621634542780253606, guid: c6b44a4fc86d76341b13331b3989745e, type: 3}
      propertyPath: m_LocalEulerAnglesHint.x
      value: 0
      objectReference: {fileID: 0}
    - target: {fileID: 6621634542780253606, guid: c6b44a4fc86d76341b13331b3989745e, type: 3}
      propertyPath: m_LocalEulerAnglesHint.y
      value: 0
      objectReference: {fileID: 0}
    - target: {fileID: 6621634542780253606, guid: c6b44a4fc86d76341b13331b3989745e, type: 3}
      propertyPath: m_LocalEulerAnglesHint.z
      value: 0
      objectReference: {fileID: 0}
    - target: {fileID: 6621634542780253607, guid: c6b44a4fc86d76341b13331b3989745e, type: 3}
      propertyPath: InitialModule.startColor.maxColor.r
      value: 0.5764706
      objectReference: {fileID: 0}
    - target: {fileID: 6621634542780253607, guid: c6b44a4fc86d76341b13331b3989745e, type: 3}
      propertyPath: InitialModule.startColor.maxColor.g
      value: 0.58431375
      objectReference: {fileID: 0}
    - target: {fileID: 6621634542780253607, guid: c6b44a4fc86d76341b13331b3989745e, type: 3}
      propertyPath: InitialModule.startColor.maxColor.b
      value: 0.6117647
      objectReference: {fileID: 0}
    - target: {fileID: 6621634542780253607, guid: c6b44a4fc86d76341b13331b3989745e, type: 3}
      propertyPath: InitialModule.startColor.minColor.r
      value: 0.098039225
      objectReference: {fileID: 0}
    - target: {fileID: 6621634542780253607, guid: c6b44a4fc86d76341b13331b3989745e, type: 3}
      propertyPath: InitialModule.startColor.minColor.g
      value: 0.09019608
      objectReference: {fileID: 0}
    - target: {fileID: 6621634542780253607, guid: c6b44a4fc86d76341b13331b3989745e, type: 3}
      propertyPath: InitialModule.startColor.minColor.b
      value: 0.1137255
      objectReference: {fileID: 0}
    - target: {fileID: 6621634542780253657, guid: c6b44a4fc86d76341b13331b3989745e, type: 3}
      propertyPath: m_Name
      value: Gem Burst - Stone
      objectReference: {fileID: 0}
    m_RemovedComponents: []
  m_SourcePrefab: {fileID: 100100000, guid: c6b44a4fc86d76341b13331b3989745e, type: 3}
